{
 "currentPage": 1,
 "startRecord": 1,
 "endRecord": 9,
 "totalPages": 88,
 "totalRecords": 787,
 "randomKey": "",
 "animals": [
  {
   "animalId": "A5768901",
   "animalName": "CLEO",
   "sex": "Female",
   "yearsOld": 0,
   "monthsOld": 5,
   "breed": "BELG MALINOIS",
   "location": "Agoura",
   "kennelStat": "AV PEND SN",
   "kennelSubStat": "WEB",
   "rescueOnly": null,
   "medicalStat": null,
   "weight": 30.5,
   "outcomeType": "",
   "primaryColor": "BROWN",
   "animalType": "DOG",
   "animalSize": "PUPPY",
   "imageCount": 3
  },
  {
   "animalId": "A5786819",
   "animalName": "OSO",
   "sex": "Male",
   "yearsOld": 1,
   "monthsOld": 0,
   "breed": "GERM SHEPHERD",
   "location": "Baldwin",
   "kennelStat": "OTHER HOLD",
   "kennelSubStat": "WEB",
   "rescueOnly": null,
   "medicalStat": null,
   "weight": 46.4,
   "outcomeType": "",
   "primaryColor": "BLACK",
   "animalType": "DOG",
   "animalSize": "MED",
   "imageCount": 1
  },
  {
   "animalId": "A5785031",
   "animalName": "LUNA",
   "sex": "Female",
   "yearsOld": 0,
   "monthsOld": 5,
   "breed": "CATAHOULA",
   "location": "Baldwin",
   "kennelStat": "RTGH",
   "kennelSubStat": "WEB",
   "rescueOnly": null,
   "medicalStat": null,
   "weight": 28,
   "outcomeType": "",
   "primaryColor": "BROWN",
   "animalType": "DOG",
   "animalSize": null,
   "imageCount": 1
  },
  {
   "animalId": "A5786773",
   "animalName": "A5786773",
   "sex": "Male",
   "yearsOld": 1,
   "monthsOld": 6,
   "breed": "TERRIER",
   "location": "Baldwin",
   "kennelStat": "STRAY WAIT",
   "kennelSubStat": "WEB",
   "rescueOnly": null,
   "medicalStat": null,
   "weight": 17.8,
   "outcomeType": "",
   "primaryColor": "BROWN",
   "animalType": "DOG",
   "animalSize": "MED",
   "imageCount": 1
  },
  {
   "animalId": "A5786775",
   "animalName": "A5786775",
   "sex": "Male",
   "yearsOld": 1,
   "monthsOld": 6,
   "breed": "TERRIER",
   "location": "Baldwin",
   "kennelStat": "STRAY WAIT",
   "kennelSubStat": "WEB",
   "rescueOnly": null,
   "medicalStat": null,
   "weight": 25.8,
   "outcomeType": "",
   "primaryColor": "BROWN",
   "animalType": "DOG",
   "animalSize": "MED",
   "imageCount": 1
  },
  {
   "animalId": "A5786784",
   "animalName": "PEBBLES",
   "sex": "Female",
   "yearsOld": 4,
   "monthsOld": 0,
   "breed": "CHIHUAHUA LH",
   "location": "Baldwin",
   "kennelStat": "STRAY WAIT",
   "kennelSubStat": "WEB",
   "rescueOnly": null,
   "medicalStat": null,
   "weight": 11.6,
   "outcomeType": "",
   "primaryColor": "BROWN",
   "animalType": "DOG",
   "animalSize": null,
   "imageCount": 1
  },
  {
   "animalId": "A5786806",
   "animalName": "MIA",
   "sex": "Female",
   "yearsOld": 0,
   "monthsOld": 7,
   "breed": "GERM SHEPHERD",
   "location": "Baldwin",
   "kennelStat": "STRAY WAIT",
   "kennelSubStat": "WEB",
   "rescueOnly": null,
   "medicalStat": null,
   "weight": 47.4,
   "outcomeType": "",
   "primaryColor": "TAN",
   "animalType": "DOG",
   "animalSize": null,
   "imageCount": 1
  },
  {
   "animalId": "A5786735",
   "animalName": "A5786735",
   "sex": "Female",
   "yearsOld": 0,
   "monthsOld": 5,
   "breed": "GERM SHEPHERD",
   "location": "Baldwin",
   "kennelStat": "STRAY WAIT",
   "kennelSubStat": "WEB",
   "rescueOnly": null,
   "medicalStat": null,
   "weight": 25.4,
   "outcomeType": "",
   "primaryColor": "TRICOLOR",
   "animalType": "DOG",
   "animalSize": "SMALL",
   "imageCount": 1
  },
  {
   "animalId": "A5786875",
   "animalName": "A5786875",
   "sex": "Male",
   "yearsOld": 5,
   "monthsOld": 0,
   "breed": "TERRIER",
   "location": "Baldwin",
   "kennelStat": "STRAY WAIT",
   "kennelSubStat": "WEB",
   "rescueOnly": null,
   "medicalStat": null,
   "weight": 54.6,
   "outcomeType": "",
   "primaryColor": "TRICOLOR",
   "animalType": "DOG",
   "animalSize": "MED",
   "imageCount": 1
  }
 ],
 "errorMessage": ""
}